<?xml version="1.0" encoding="UTF-8" standalone="no"?>
<!-- Created with Inkscape (http://www.inkscape.org/) -->

<svg
   xmlns:dc="http://purl.org/dc/elements/1.1/"
   xmlns:cc="http://creativecommons.org/ns#"
   xmlns:rdf="http://www.w3.org/1999/02/22-rdf-syntax-ns#"
   xmlns:svg="http://www.w3.org/2000/svg"
   xmlns="http://www.w3.org/2000/svg"
   xmlns:xlink="http://www.w3.org/1999/xlink"
   xmlns:sodipodi="http://sodipodi.sourceforge.net/DTD/sodipodi-0.dtd"
   xmlns:inkscape="http://www.inkscape.org/namespaces/inkscape"
   width="179.40033mm"
   height="37.370472mm"
   viewBox="0 0 635.67046 132.41506"
   id="svg7576"
   version="1.1"
   inkscape:version="0.91 r13725"
   sodipodi:docname="mpi_eval-simple-flow.svg"
   inkscape:export-filename="/home/dabi/VC-Projects/Software/Mine/Current/transport-maps/Docs/source/Figures/mpi_eval-simple-flow.png"
   inkscape:export-xdpi="101.61"
   inkscape:export-ydpi="101.61">
  <defs
     id="defs7578">
    <marker
       inkscape:stockid="DotM"
       orient="auto"
       refY="0"
       refX="0"
       id="marker6121"
       style="overflow:visible"
       inkscape:isstock="true">
      <path
         id="path6123"
         d="m -2.5,-1 c 0,2.76 -2.24,5 -5,5 -2.76,0 -5,-2.24 -5,-5 0,-2.76 2.24,-5 5,-5 2.76,0 5,2.24 5,5 z"
         style="fill:#000000;fill-opacity:1;fill-rule:evenodd;stroke:#000000;stroke-width:1pt;stroke-opacity:1"
         transform="matrix(0.4,0,0,0.4,2.96,0.4)"
         inkscape:connector-curvature="0" />
    </marker>
    <marker
       inkscape:stockid="DotM"
       orient="auto"
       refY="0"
       refX="0"
       id="DotM"
       style="overflow:visible"
       inkscape:isstock="true">
      <path
         id="path5925"
         d="m -2.5,-1 c 0,2.76 -2.24,5 -5,5 -2.76,0 -5,-2.24 -5,-5 0,-2.76 2.24,-5 5,-5 2.76,0 5,2.24 5,5 z"
         style="fill:#000000;fill-opacity:1;fill-rule:evenodd;stroke:#000000;stroke-width:1pt;stroke-opacity:1"
         transform="matrix(0.4,0,0,0.4,2.96,0.4)"
         inkscape:connector-curvature="0" />
    </marker>
    <marker
       inkscape:stockid="DotM"
       orient="auto"
       refY="0"
       refX="0"
       id="marker9893"
       style="overflow:visible"
       inkscape:isstock="true">
      <path
         id="path9895"
         d="m -2.5,-1 c 0,2.76 -2.24,5 -5,5 -2.76,0 -5,-2.24 -5,-5 0,-2.76 2.24,-5 5,-5 2.76,0 5,2.24 5,5 z"
         style="fill:#000000;fill-opacity:1;fill-rule:evenodd;stroke:#000000;stroke-width:1pt;stroke-opacity:1"
         transform="matrix(0.4,0,0,0.4,2.96,0.4)"
         inkscape:connector-curvature="0" />
    </marker>
    <marker
       inkscape:isstock="true"
       style="overflow:visible"
       id="marker9633"
       refX="0"
       refY="0"
       orient="auto"
       inkscape:stockid="DotM"
       inkscape:collect="always">
      <path
         inkscape:connector-curvature="0"
         transform="matrix(0.4,0,0,0.4,2.96,0.4)"
         style="fill:#000000;fill-opacity:1;fill-rule:evenodd;stroke:#000000;stroke-width:1pt;stroke-opacity:1"
         d="m -2.5,-1 c 0,2.76 -2.24,5 -5,5 -2.76,0 -5,-2.24 -5,-5 0,-2.76 2.24,-5 5,-5 2.76,0 5,2.24 5,5 z"
         id="path9635" />
    </marker>
    <marker
       inkscape:isstock="true"
       style="overflow:visible"
       id="marker9527"
       refX="0"
       refY="0"
       orient="auto"
       inkscape:stockid="DotM">
      <path
         inkscape:connector-curvature="0"
         transform="matrix(0.4,0,0,0.4,2.96,0.4)"
         style="fill:#000000;fill-opacity:1;fill-rule:evenodd;stroke:#000000;stroke-width:1pt;stroke-opacity:1"
         d="m -2.5,-1 c 0,2.76 -2.24,5 -5,5 -2.76,0 -5,-2.24 -5,-5 0,-2.76 2.24,-5 5,-5 2.76,0 5,2.24 5,5 z"
         id="path9529" />
    </marker>
    <marker
       inkscape:isstock="true"
       style="overflow:visible"
       id="marker9427"
       refX="0"
       refY="0"
       orient="auto"
       inkscape:stockid="DotM">
      <path
         inkscape:connector-curvature="0"
         transform="matrix(0.4,0,0,0.4,2.96,0.4)"
         style="fill:#000000;fill-opacity:1;fill-rule:evenodd;stroke:#000000;stroke-width:1pt;stroke-opacity:1"
         d="m -2.5,-1 c 0,2.76 -2.24,5 -5,5 -2.76,0 -5,-2.24 -5,-5 0,-2.76 2.24,-5 5,-5 2.76,0 5,2.24 5,5 z"
         id="path9429" />
    </marker>
    <marker
       inkscape:isstock="true"
       style="overflow:visible"
       id="marker9333"
       refX="0"
       refY="0"
       orient="auto"
       inkscape:stockid="DotM">
      <path
         inkscape:connector-curvature="0"
         transform="matrix(0.4,0,0,0.4,2.96,0.4)"
         style="fill:#000000;fill-opacity:1;fill-rule:evenodd;stroke:#000000;stroke-width:1pt;stroke-opacity:1"
         d="m -2.5,-1 c 0,2.76 -2.24,5 -5,5 -2.76,0 -5,-2.24 -5,-5 0,-2.76 2.24,-5 5,-5 2.76,0 5,2.24 5,5 z"
         id="path9335" />
    </marker>
    <marker
       inkscape:isstock="true"
       style="overflow:visible"
       id="marker9245"
       refX="0"
       refY="0"
       orient="auto"
       inkscape:stockid="DotM">
      <path
         inkscape:connector-curvature="0"
         transform="matrix(0.4,0,0,0.4,2.96,0.4)"
         style="fill:#000000;fill-opacity:1;fill-rule:evenodd;stroke:#000000;stroke-width:1pt;stroke-opacity:1"
         d="m -2.5,-1 c 0,2.76 -2.24,5 -5,5 -2.76,0 -5,-2.24 -5,-5 0,-2.76 2.24,-5 5,-5 2.76,0 5,2.24 5,5 z"
         id="path9247" />
    </marker>
    <marker
       inkscape:isstock="true"
       style="overflow:visible"
       id="marker9163"
       refX="0"
       refY="0"
       orient="auto"
       inkscape:stockid="DotM">
      <path
         inkscape:connector-curvature="0"
         transform="matrix(0.4,0,0,0.4,2.96,0.4)"
         style="fill:#000000;fill-opacity:1;fill-rule:evenodd;stroke:#000000;stroke-width:1pt;stroke-opacity:1"
         d="m -2.5,-1 c 0,2.76 -2.24,5 -5,5 -2.76,0 -5,-2.24 -5,-5 0,-2.76 2.24,-5 5,-5 2.76,0 5,2.24 5,5 z"
         id="path9165" />
    </marker>
    <marker
       inkscape:stockid="Arrow1Mend"
       orient="auto"
       refY="0"
       refX="0"
       id="marker9045"
       style="overflow:visible"
       inkscape:isstock="true">
      <path
         id="path9047"
         d="M 0,0 5,-5 -12.5,0 5,5 0,0 Z"
         style="fill:#000000;fill-opacity:1;fill-rule:evenodd;stroke:#000000;stroke-width:1pt;stroke-opacity:1"
         transform="matrix(-0.4,0,0,-0.4,-4,0)"
         inkscape:connector-curvature="0" />
    </marker>
    <marker
       inkscape:stockid="Arrow1Mend"
       orient="auto"
       refY="0"
       refX="0"
       id="marker8975"
       style="overflow:visible"
       inkscape:isstock="true">
      <path
         id="path8977"
         d="M 0,0 5,-5 -12.5,0 5,5 0,0 Z"
         style="fill:#000000;fill-opacity:1;fill-rule:evenodd;stroke:#000000;stroke-width:1pt;stroke-opacity:1"
         transform="matrix(-0.4,0,0,-0.4,-4,0)"
         inkscape:connector-curvature="0" />
    </marker>
    <marker
       inkscape:stockid="Arrow1Mend"
       orient="auto"
       refY="0"
       refX="0"
       id="marker8911"
       style="overflow:visible"
       inkscape:isstock="true">
      <path
         id="path8913"
         d="M 0,0 5,-5 -12.5,0 5,5 0,0 Z"
         style="fill:#000000;fill-opacity:1;fill-rule:evenodd;stroke:#000000;stroke-width:1pt;stroke-opacity:1"
         transform="matrix(-0.4,0,0,-0.4,-4,0)"
         inkscape:connector-curvature="0" />
    </marker>
    <marker
       inkscape:isstock="true"
       style="overflow:visible"
       id="marker8841"
       refX="0"
       refY="0"
       orient="auto"
       inkscape:stockid="Arrow1Mend"
       inkscape:collect="always">
      <path
         inkscape:connector-curvature="0"
         transform="matrix(-0.4,0,0,-0.4,-4,0)"
         style="fill:#000000;fill-opacity:1;fill-rule:evenodd;stroke:#000000;stroke-width:1pt;stroke-opacity:1"
         d="M 0,0 5,-5 -12.5,0 5,5 0,0 Z"
         id="path8843" />
    </marker>
    <marker
       inkscape:isstock="true"
       style="overflow:visible"
       id="marker8789"
       refX="0"
       refY="0"
       orient="auto"
       inkscape:stockid="Arrow1Mend">
      <path
         inkscape:connector-curvature="0"
         transform="matrix(-0.4,0,0,-0.4,-4,0)"
         style="fill:#000000;fill-opacity:1;fill-rule:evenodd;stroke:#000000;stroke-width:1pt;stroke-opacity:1"
         d="M 0,0 5,-5 -12.5,0 5,5 0,0 Z"
         id="path8791" />
    </marker>
    <marker
       inkscape:isstock="true"
       style="overflow:visible"
       id="marker8743"
       refX="0"
       refY="0"
       orient="auto"
       inkscape:stockid="Arrow1Mend">
      <path
         inkscape:connector-curvature="0"
         transform="matrix(-0.4,0,0,-0.4,-4,0)"
         style="fill:#000000;fill-opacity:1;fill-rule:evenodd;stroke:#000000;stroke-width:1pt;stroke-opacity:1"
         d="M 0,0 5,-5 -12.5,0 5,5 0,0 Z"
         id="path8745" />
    </marker>
    <marker
       inkscape:isstock="true"
       style="overflow:visible"
       id="marker8703"
       refX="0"
       refY="0"
       orient="auto"
       inkscape:stockid="Arrow1Mend">
      <path
         inkscape:connector-curvature="0"
         transform="matrix(-0.4,0,0,-0.4,-4,0)"
         style="fill:#000000;fill-opacity:1;fill-rule:evenodd;stroke:#000000;stroke-width:1pt;stroke-opacity:1"
         d="M 0,0 5,-5 -12.5,0 5,5 0,0 Z"
         id="path8705" />
    </marker>
    <marker
       inkscape:stockid="Arrow1Mend"
       orient="auto"
       refY="0"
       refX="0"
       id="marker7267"
       style="overflow:visible"
       inkscape:isstock="true"
       inkscape:collect="always">
      <path
         id="path7270"
         d="M 0,0 5,-5 -12.5,0 5,5 0,0 Z"
         style="fill:#000000;fill-opacity:1;fill-rule:evenodd;stroke:#000000;stroke-width:1pt;stroke-opacity:1"
         transform="matrix(-0.4,0,0,-0.4,-4,0)"
         inkscape:connector-curvature="0" />
    </marker>
    <marker
       inkscape:stockid="Arrow1Mend"
       orient="auto"
       refY="0"
       refX="0"
       id="marker7678"
       style="overflow:visible"
       inkscape:isstock="true">
      <path
         id="path7680"
         d="M 0,0 5,-5 -12.5,0 5,5 0,0 Z"
         style="fill:#000000;fill-opacity:1;fill-rule:evenodd;stroke:#000000;stroke-width:1pt;stroke-opacity:1"
         transform="matrix(-0.4,0,0,-0.4,-4,0)"
         inkscape:connector-curvature="0" />
    </marker>
    <marker
       inkscape:stockid="Arrow1Mend"
       orient="auto"
       refY="0"
       refX="0"
       id="marker7470"
       style="overflow:visible"
       inkscape:isstock="true">
      <path
         id="path7472"
         d="M 0,0 5,-5 -12.5,0 5,5 0,0 Z"
         style="fill:#000000;fill-opacity:1;fill-rule:evenodd;stroke:#000000;stroke-width:1pt;stroke-opacity:1"
         transform="matrix(-0.4,0,0,-0.4,-4,0)"
         inkscape:connector-curvature="0" />
    </marker>
  </defs>
  <sodipodi:namedview
     id="base"
     pagecolor="#ffffff"
     bordercolor="#666666"
     borderopacity="1.0"
     inkscape:pageopacity="0.0"
     inkscape:pageshadow="2"
     inkscape:zoom="1.4142136"
     inkscape:cx="371.14633"
     inkscape:cy="5.6572607"
     inkscape:document-units="px"
     inkscape:current-layer="layer1"
     showgrid="false"
     inkscape:window-width="1920"
     inkscape:window-height="1056"
     inkscape:window-x="0"
     inkscape:window-y="24"
     inkscape:window-maximized="1"
     fit-margin-top="0"
     fit-margin-left="0"
     fit-margin-right="0"
     fit-margin-bottom="0" />
  <metadata
     id="metadata7581">
    <rdf:RDF>
      <cc:Work
         rdf:about="">
        <dc:format>image/svg+xml</dc:format>
        <dc:type
           rdf:resource="http://purl.org/dc/dcmitype/StillImage" />
        <dc:title></dc:title>
      </cc:Work>
    </rdf:RDF>
  </metadata>
  <g
     inkscape:label="Layer 1"
     inkscape:groupmode="layer"
     id="layer1"
     transform="translate(-54.74898,-98.782773)">
    <rect
       style="fill:none;fill-opacity:0.19607843;stroke:#c75e51;stroke-width:1.18091214;stroke-miterlimit:4;stroke-dasharray:none;stroke-dashoffset:0;stroke-opacity:1"
       id="rect4136-7-3-6-0"
       width="634.48956"
       height="29.417973"
       x="55.339436"
       y="201.18941" />
    <flowRoot
       transform="translate(-945.71205,-510.72135)"
       xml:space="preserve"
       style="font-style:normal;font-weight:normal;font-size:12px;line-height:125%;font-family:Sans;text-align:start;letter-spacing:0px;word-spacing:0px;text-anchor:start;fill:#000000;fill-opacity:1;stroke:none;stroke-width:1px;stroke-linecap:butt;stroke-linejoin:miter;stroke-opacity:1"
       id="flowRoot4144-9-7-1-9"><flowRegion
         id="flowRegion4146-2-5-2-3"><use
           height="100%"
           width="100%"
           x="0"
           y="0"
           xlink:href="#rect4136-7-3-6-0"
           id="use4148-0-9-9-6"
           transform="translate(945.71205,510.72135)" /></flowRegion><flowPara
         id="flowPara8415">mpi_eval(f,x,y)</flowPara></flowRoot>    <rect
       style="fill:#ba51c7;fill-opacity:0.19607843;stroke:#ba51c7;stroke-width:1.39516807;stroke-miterlimit:4;stroke-dasharray:none;stroke-dashoffset:0;stroke-opacity:1"
       id="rect4451-1-6-2"
       width="65.904182"
       height="16.033401"
       x="291.72916"
       y="152.73235" />
    <flowRoot
       transform="translate(-1202.212,-211.60914)"
       xml:space="preserve"
       style="font-style:normal;font-weight:normal;font-size:12px;line-height:125%;font-family:Sans;text-align:center;letter-spacing:0px;word-spacing:0px;text-anchor:middle;fill:#000000;fill-opacity:1;stroke:none;stroke-width:1px;stroke-linecap:butt;stroke-linejoin:miter;stroke-opacity:1"
       id="flowRoot4457-9-3-0"><flowRegion
         id="flowRegion4459-4-2-2"><use
           x="0"
           y="0"
           xlink:href="#rect4451-1-6-2"
           id="use4461-78-0-37"
           width="100%"
           height="100%"
           transform="translate(1202.212,211.60914)" /></flowRegion><flowPara
         id="flowPara4463-4-6-5">scatter(x<flowSpan
   style="font-size:64.99999762%;baseline-shift:sub"
   id="flowSpan8507">i</flowSpan>)</flowPara></flowRoot>    <rect
       style="fill:#ba51c7;fill-opacity:0.19607843;stroke:#ba51c7;stroke-width:1.20000005;stroke-miterlimit:4;stroke-dasharray:none;stroke-dashoffset:0;stroke-opacity:1"
       id="rect4451-1-6-6-3"
       width="98.69117"
       height="15.737121"
       x="390.59158"
       y="153.79118" />
    <flowRoot
       transform="translate(-1571.6405,-240.43563)"
       xml:space="preserve"
       style="font-style:normal;font-weight:normal;font-size:12px;line-height:125%;font-family:Sans;text-align:center;letter-spacing:0px;word-spacing:0px;text-anchor:middle;fill:#000000;fill-opacity:1;stroke:none;stroke-width:1px;stroke-linecap:butt;stroke-linejoin:miter;stroke-opacity:1"
       id="flowRoot4457-9-3-5-6"><flowRegion
         id="flowRegion4459-4-2-6-1"><use
           x="0"
           y="0"
           xlink:href="#rect4451-1-6-6-3"
           id="use4461-78-0-9-2"
           width="100%"
           height="100%"
           transform="translate(1571.6405,240.43563)" /></flowRegion><flowPara
         id="flowPara4463-4-6-3-9">z<flowSpan
   style="font-size:64.99999762%;baseline-shift:sub"
   id="flowSpan4271">i</flowSpan> = f(x=x<flowSpan
   style="font-size:64.99999762%;baseline-shift:sub"
   id="flowSpan8538">i</flowSpan>,y=y)</flowPara></flowRoot>    <rect
       style="fill:#ba51c7;fill-opacity:0.19607843;stroke:#ba51c7;stroke-width:1.45072782;stroke-miterlimit:4;stroke-dasharray:none;stroke-dashoffset:0;stroke-opacity:1"
       id="rect4451-1-6-7-4"
       width="71.50547"
       height="15.977843"
       x="516.82147"
       y="152.95654" />
    <flowRoot
       transform="translate(-1581.6405,-240.43563)"
       xml:space="preserve"
       style="font-style:normal;font-weight:normal;font-size:12px;line-height:125%;font-family:Sans;text-align:center;letter-spacing:0px;word-spacing:0px;text-anchor:middle;fill:#000000;fill-opacity:1;stroke:none;stroke-width:1px;stroke-linecap:butt;stroke-linejoin:miter;stroke-opacity:1"
       id="flowRoot4457-9-3-4-5"><flowRegion
         id="flowRegion4459-4-2-4-0"><use
           x="0"
           y="0"
           xlink:href="#rect4451-1-6-7-4"
           id="use4461-78-0-3-3"
           width="100%"
           height="100%"
           transform="translate(1581.6405,240.43563)" /></flowRegion><flowPara
         id="flowPara4463-4-6-0-6">gather(z<flowSpan
   style="font-size:64.99999762%;baseline-shift:sub"
   id="flowSpan4273">i</flowSpan>)</flowPara></flowRoot>    <rect
       style="fill:#ba51c7;fill-opacity:0.19607843;stroke:#ba51c7;stroke-width:0.93286395;stroke-miterlimit:4;stroke-dasharray:none;stroke-dashoffset:0;stroke-opacity:1"
       id="rect4451-2"
       width="28.638563"
       height="16.495707"
       x="78.634033"
       y="152.104" />
    <flowRoot
       transform="translate(-526.13281,-27.655224)"
       xml:space="preserve"
       style="font-style:normal;font-weight:normal;font-size:12px;line-height:125%;font-family:Sans;text-align:center;letter-spacing:0px;word-spacing:0px;text-anchor:middle;fill:#000000;fill-opacity:1;stroke:none;stroke-width:1px;stroke-linecap:butt;stroke-linejoin:miter;stroke-opacity:1"
       id="flowRoot4457-8"><flowRegion
         id="flowRegion4459-9"><use
           height="100%"
           width="100%"
           x="0"
           y="0"
           xlink:href="#rect4451-2"
           id="use4461-7"
           transform="translate(526.13281,27.655224)" /></flowRegion><flowPara
         id="flowPara4463-3">P<flowSpan
   style="font-size:64.99999762%;baseline-shift:sub"
   id="flowSpan7265">i</flowSpan></flowPara></flowRoot>    <rect
       style="fill:#ba51c7;fill-opacity:0.19607843;stroke:#ba51c7;stroke-width:1.57390332;stroke-miterlimit:4;stroke-dasharray:none;stroke-dashoffset:0;stroke-opacity:1"
       id="rect4451-1-6-2-2"
       width="84.817329"
       height="15.854667"
       x="181.58809"
       y="152.89861" />
    <flowRoot
       transform="translate(-1405.2435,-305.25104)"
       xml:space="preserve"
       style="font-style:normal;font-weight:normal;font-size:12px;line-height:125%;font-family:Sans;text-align:center;letter-spacing:0px;word-spacing:0px;text-anchor:middle;fill:#000000;fill-opacity:1;stroke:none;stroke-width:1px;stroke-linecap:butt;stroke-linejoin:miter;stroke-opacity:1"
       id="flowRoot4457-9-3-0-9"><flowRegion
         id="flowRegion4459-4-2-2-3"><use
           x="0"
           y="0"
           xlink:href="#rect4451-1-6-2-2"
           id="use4461-78-0-37-1"
           width="100%"
           height="100%"
           transform="translate(1405.2435,305.25104)" /></flowRegion><flowPara
         id="flowPara4463-4-6-5-9">broadcas(f,y)</flowPara></flowRoot>    <rect
       style="fill:#c76251;fill-opacity:0.19607843;stroke:#c75e51;stroke-width:0.76949739;stroke-miterlimit:4;stroke-dasharray:none;stroke-dashoffset:0;stroke-opacity:1"
       id="rect4136-7-3-6-0-4"
       width="86.458054"
       height="17.373367"
       x="177.64131"
       y="206.4819" />
    <flowRoot
       transform="translate(-957.83979,-729.5483)"
       xml:space="preserve"
       style="font-style:normal;font-weight:normal;font-size:12px;line-height:125%;font-family:Sans;text-align:center;letter-spacing:0px;word-spacing:0px;text-anchor:middle;fill:#000000;fill-opacity:1;stroke:none;stroke-width:1px;stroke-linecap:butt;stroke-linejoin:miter;stroke-opacity:1"
       id="flowRoot4144-9-7-1-9-7"><flowRegion
         id="flowRegion4146-2-5-2-3-8"><use
           height="100%"
           width="100%"
           x="0"
           y="0"
           xlink:href="#rect4136-7-3-6-0-4"
           id="use4148-0-9-9-6-4"
           transform="translate(957.83979,729.5483)" /></flowRegion><flowPara
         id="flowPara8415-0">broadcast(f,y)</flowPara></flowRoot>    <rect
       style="fill:#c76251;fill-opacity:0.19607843;stroke:#c75e51;stroke-width:0.67439842;stroke-miterlimit:4;stroke-dasharray:none;stroke-dashoffset:0;stroke-opacity:1"
       id="rect4136-7-3-6-0-4-3"
       width="66.04705"
       height="17.468466"
       x="293.89203"
       y="207.50543" />
    <flowRoot
       transform="translate(-1136.6111,-951.88809)"
       xml:space="preserve"
       style="font-style:normal;font-weight:normal;font-size:12px;line-height:125%;font-family:Sans;text-align:center;letter-spacing:0px;word-spacing:0px;text-anchor:middle;fill:#000000;fill-opacity:1;stroke:none;stroke-width:1px;stroke-linecap:butt;stroke-linejoin:miter;stroke-opacity:1"
       id="flowRoot4144-9-7-1-9-7-6"><flowRegion
         id="flowRegion4146-2-5-2-3-8-1"><use
           height="100%"
           width="100%"
           x="0"
           y="0"
           xlink:href="#rect4136-7-3-6-0-4-3"
           id="use4148-0-9-9-6-4-0"
           transform="translate(1136.6111,951.88809)" /></flowRegion><flowPara
         id="flowPara8415-0-3">scatter(x)</flowPara></flowRoot>    <rect
       style="fill:#51c77c;fill-opacity:0.19607843;stroke:#51c768;stroke-width:0.91269428;stroke-linejoin:miter;stroke-miterlimit:4;stroke-dasharray:none;stroke-dashoffset:0;stroke-opacity:1"
       id="rect8485"
       width="62.312702"
       height="17.057867"
       x="194.28938"
       y="99.23912" />
    <flowRoot
       xml:space="preserve"
       style="font-style:normal;font-weight:normal;font-size:12px;line-height:125%;font-family:Sans;text-align:center;letter-spacing:0px;word-spacing:0px;text-anchor:middle;fill:#000000;fill-opacity:1;stroke:none;stroke-width:1px;stroke-linecap:butt;stroke-linejoin:miter;stroke-opacity:1"
       id="flowRoot8499"><flowRegion
         id="flowRegion8501"><use
           x="0"
           y="0"
           xlink:href="#rect8485"
           id="use8503"
           width="100%"
           height="100%" /></flowRegion><flowPara
         id="flowPara8505">(f,y)</flowPara></flowRoot>    <rect
       style="fill:#51c77c;fill-opacity:0.19607843;stroke:#51c768;stroke-width:0.91269428;stroke-linejoin:miter;stroke-miterlimit:4;stroke-dasharray:none;stroke-dashoffset:0;stroke-opacity:1"
       id="rect8485-2"
       width="62.312702"
       height="17.057867"
       x="326.09195"
       y="99.724403" />
    <flowRoot
       transform="translate(-193.83304,-98.782773)"
       xml:space="preserve"
       style="font-style:normal;font-weight:normal;font-size:12px;line-height:125%;font-family:Sans;text-align:center;letter-spacing:0px;word-spacing:0px;text-anchor:middle;fill:#000000;fill-opacity:1;stroke:none;stroke-width:1px;stroke-linecap:butt;stroke-linejoin:miter;stroke-opacity:1"
       id="flowRoot8499-0"><flowRegion
         id="flowRegion8501-6"><use
           height="100%"
           width="100%"
           x="0"
           y="0"
           xlink:href="#rect8485-2"
           id="use8503-1"
           transform="translate(193.83304,98.782773)" /></flowRegion><flowPara
         id="flowPara8505-5">(f,y,x<flowSpan
   style="font-size:64.99999762%;baseline-shift:sub"
   id="flowSpan8536">i</flowSpan>)</flowPara></flowRoot>    <rect
       style="fill:#c76251;fill-opacity:0.19607843;stroke:#c75e51;stroke-width:0.67439842;stroke-miterlimit:4;stroke-dasharray:none;stroke-dashoffset:0;stroke-opacity:1"
       id="rect4136-7-3-6-0-4-3-9"
       width="66.04705"
       height="17.468466"
       x="521.79187"
       y="206.1709" />
    <flowRoot
       transform="translate(-1426.1659,-1159.0563)"
       xml:space="preserve"
       style="font-style:normal;font-weight:normal;font-size:12px;line-height:125%;font-family:Sans;text-align:center;letter-spacing:0px;word-spacing:0px;text-anchor:middle;fill:#000000;fill-opacity:1;stroke:none;stroke-width:1px;stroke-linecap:butt;stroke-linejoin:miter;stroke-opacity:1"
       id="flowRoot4144-9-7-1-9-7-6-3"><flowRegion
         id="flowRegion4146-2-5-2-3-8-1-7"><use
           height="100%"
           width="100%"
           x="0"
           y="0"
           xlink:href="#rect4136-7-3-6-0-4-3-9"
           id="use4148-0-9-9-6-4-0-4"
           transform="translate(1426.1659,1159.0563)" /></flowRegion><flowPara
         id="flowPara8415-0-3-5">gather(z)</flowPara></flowRoot>    <rect
       style="fill:#c76251;fill-opacity:0.19607843;stroke:#c75e51;stroke-width:0.67439842;stroke-miterlimit:4;stroke-dasharray:none;stroke-dashoffset:0;stroke-opacity:1"
       id="rect4136-7-3-6-0-4-3-2"
       width="66.04705"
       height="17.468466"
       x="616.56494"
       y="205.82776" />
    <flowRoot
       transform="translate(-1426.1659,-1159.0563)"
       xml:space="preserve"
       style="font-style:normal;font-weight:normal;font-size:12px;line-height:125%;font-family:Sans;text-align:center;letter-spacing:0px;word-spacing:0px;text-anchor:middle;fill:#000000;fill-opacity:1;stroke:none;stroke-width:1px;stroke-linecap:butt;stroke-linejoin:miter;stroke-opacity:1"
       id="flowRoot4144-9-7-1-9-7-6-5"><flowRegion
         id="flowRegion4146-2-5-2-3-8-1-4"><use
           height="100%"
           width="100%"
           x="0"
           y="0"
           xlink:href="#rect4136-7-3-6-0-4-3-2"
           id="use4148-0-9-9-6-4-0-7"
           transform="translate(1426.1659,1159.0563)" /></flowRegion><flowPara
         id="flowPara8415-0-3-4">return z</flowPara></flowRoot>    <path
       style="fill:none;fill-rule:evenodd;stroke:#000000;stroke-width:1px;stroke-linecap:butt;stroke-linejoin:miter;stroke-opacity:1;marker-end:url(#marker8789)"
       d="m 264.09937,215.60522 29.79266,0.30091"
       id="path8615"
       inkscape:connector-type="polyline"
       inkscape:connector-curvature="0"
       inkscape:connection-start="#rect4136-7-3-6-0-4"
       inkscape:connection-end="#rect4136-7-3-6-0-4-3" />
    <path
       style="fill:none;fill-rule:evenodd;stroke:#000000;stroke-width:1;stroke-linecap:butt;stroke-linejoin:miter;stroke-miterlimit:4;stroke-dasharray:8, 2, 1, 2;stroke-dashoffset:0;stroke-opacity:1;marker-end:url(#marker8975)"
       d="m 359.93908,216.04458 161.85279,-0.95617"
       id="path8617"
       inkscape:connector-type="polyline"
       inkscape:connector-curvature="0"
       inkscape:connection-start="#rect4136-7-3-6-0-4-3"
       inkscape:connection-end="#rect4136-7-3-6-0-4-3-9" />
    <path
       style="fill:none;fill-rule:evenodd;stroke:#000000;stroke-width:1px;stroke-linecap:butt;stroke-linejoin:miter;stroke-opacity:1;marker-end:url(#marker8703)"
       d="m 587.83892,214.77833 28.72602,-0.10401"
       id="path8619"
       inkscape:connector-type="polyline"
       inkscape:connector-curvature="0"
       inkscape:connection-start="#rect4136-7-3-6-0-4-3-9"
       inkscape:connection-end="#rect4136-7-3-6-0-4-3-2" />
    <path
       style="fill:none;fill-rule:evenodd;stroke:#000000;stroke-width:1;stroke-linecap:butt;stroke-linejoin:miter;stroke-miterlimit:4;stroke-dasharray:8, 2, 1, 2;stroke-dashoffset:0;stroke-opacity:1;marker-end:url(#marker8911)"
       d="m 107.2726,160.40366 74.31549,0.26886"
       id="path8621"
       inkscape:connector-type="polyline"
       inkscape:connector-curvature="0"
       inkscape:connection-start="#rect4451-2"
       inkscape:connection-end="#rect4451-1-6-2-2" />
    <path
       style="fill:none;fill-rule:evenodd;stroke:#000000;stroke-width:1;stroke-linecap:butt;stroke-linejoin:miter;stroke-miterlimit:4;stroke-dasharray:8, 2, 1, 2;stroke-dashoffset:0;stroke-opacity:1;marker-end:url(#marker9045)"
       d="m 266.40542,160.79356 25.32374,-0.0193"
       id="path8623"
       inkscape:connector-type="polyline"
       inkscape:connector-curvature="0"
       inkscape:connection-start="#rect4451-1-6-2-2"
       inkscape:connection-end="#rect4451-1-6-2" />
    <path
       style="fill:none;fill-rule:evenodd;stroke:#000000;stroke-width:1px;stroke-linecap:butt;stroke-linejoin:miter;stroke-opacity:1;marker-end:url(#marker7267)"
       d="m 357.63334,161.00942 32.95824,0.26042"
       id="path8625"
       inkscape:connector-type="polyline"
       inkscape:connector-curvature="0"
       inkscape:connection-start="#rect4451-1-6-2"
       inkscape:connection-end="#rect4451-1-6-6-3" />
    <path
       style="fill:none;fill-rule:evenodd;stroke:#000000;stroke-width:1px;stroke-linecap:butt;stroke-linejoin:miter;stroke-opacity:1;marker-end:url(#marker8841)"
       d="m 489.28275,161.35228 27.53872,-0.17159"
       id="path8627"
       inkscape:connector-type="polyline"
       inkscape:connector-curvature="0"
       inkscape:connection-start="#rect4451-1-6-6-3"
       inkscape:connection-end="#rect4451-1-6-7-4" />
    <path
       style="fill:none;fill-rule:evenodd;stroke:#000000;stroke-width:1px;stroke-linecap:butt;stroke-linejoin:miter;stroke-opacity:1;marker-end:url(#marker9527)"
       d="m 221.3701,206.4819 2.17058,-37.72863"
       id="path8629"
       inkscape:connector-type="polyline"
       inkscape:connector-curvature="0"
       inkscape:connection-start="#rect4136-7-3-6-0-4"
       inkscape:connection-end="#rect4451-1-6-2-2" />
    <path
       style="fill:none;fill-rule:evenodd;stroke:#000000;stroke-width:1px;stroke-linecap:butt;stroke-linejoin:miter;stroke-opacity:1;marker-end:url(#marker9333)"
       d="m 326.56387,207.50543 -1.55983,-38.73968"
       id="path8631"
       inkscape:connector-type="polyline"
       inkscape:connector-curvature="0"
       inkscape:connection-start="#rect4136-7-3-6-0-4-3"
       inkscape:connection-end="#rect4451-1-6-2" />
    <path
       style="fill:none;fill-rule:evenodd;stroke:#000000;stroke-width:1px;stroke-linecap:butt;stroke-linejoin:miter;stroke-opacity:1;marker-end:url(#marker9427)"
       d="m 224.21324,152.89861 0.99957,-36.60162"
       id="path8635"
       inkscape:connector-type="polyline"
       inkscape:connector-curvature="0"
       inkscape:connection-start="#rect4451-1-6-2-2"
       inkscape:connection-end="#rect8485" />
    <path
       style="fill:none;fill-rule:evenodd;stroke:#000000;stroke-width:1px;stroke-linecap:butt;stroke-linejoin:miter;stroke-opacity:1;marker-end:url(#marker9245)"
       d="M 329.34919,152.73235 350.2821,116.78227"
       id="path8639"
       inkscape:connector-type="polyline"
       inkscape:connector-curvature="0"
       inkscape:connection-start="#rect4451-1-6-2"
       inkscape:connection-end="#rect8485-2" />
    <rect
       style="fill:#51c77c;fill-opacity:0.19607843;stroke:#51c768;stroke-width:0.91269428;stroke-linejoin:miter;stroke-miterlimit:4;stroke-dasharray:none;stroke-dashoffset:0;stroke-opacity:1"
       id="rect8485-2-5-4"
       width="62.312702"
       height="17.057867"
       x="489.17371"
       y="99.845718" />
    <flowRoot
       transform="translate(-897.19106,-297.68285)"
       xml:space="preserve"
       style="font-style:normal;font-weight:normal;font-size:12px;line-height:125%;font-family:Sans;text-align:center;letter-spacing:0px;word-spacing:0px;text-anchor:middle;fill:#000000;fill-opacity:1;stroke:none;stroke-width:1px;stroke-linecap:butt;stroke-linejoin:miter;stroke-opacity:1"
       id="flowRoot8499-0-4-3"
       inkscape:export-filename="/home/dabi/VC-Projects/Software/Mine/Current/transport-maps/Docs/source/Figures/flowRoot8499-0-4-3.png"
       inkscape:export-xdpi="101.61"
       inkscape:export-ydpi="101.61"><flowRegion
         id="flowRegion8501-6-7-0"><use
           height="100%"
           width="100%"
           x="0"
           y="0"
           xlink:href="#rect8485-2-5-4"
           id="use8503-1-6-7"
           transform="translate(897.19106,297.68285)" /></flowRegion><flowPara
         id="flowPara8505-5-5-8">(f,y,x<flowSpan
   style="font-size:64.99999762%;baseline-shift:sub"
   id="flowSpan8570-6">i</flowSpan>,z<flowSpan
   style="font-size:64.99999762%;baseline-shift:sub"
   id="flowSpan5845">i</flowSpan>)</flowPara></flowRoot>    <rect
       style="fill:#51c77c;fill-opacity:0.19607843;stroke:#51c768;stroke-width:0.91269428;stroke-linejoin:miter;stroke-miterlimit:4;stroke-dasharray:none;stroke-dashoffset:0;stroke-opacity:1"
       id="rect8485-2-5-8"
       width="62.312702"
       height="17.057867"
       x="613.58289"
       y="100.08836" />
    <flowRoot
       transform="translate(-897.19106,-297.68285)"
       xml:space="preserve"
       style="font-style:normal;font-weight:normal;font-size:12px;line-height:125%;font-family:Sans;text-align:center;letter-spacing:0px;word-spacing:0px;text-anchor:middle;fill:#000000;fill-opacity:1;stroke:none;stroke-width:1px;stroke-linecap:butt;stroke-linejoin:miter;stroke-opacity:1"
       id="flowRoot8499-0-4-8"><flowRegion
         id="flowRegion8501-6-7-4"><use
           height="100%"
           width="100%"
           x="0"
           y="0"
           xlink:href="#rect8485-2-5-8"
           id="use8503-1-6-3"
           transform="translate(897.19106,297.68285)" /></flowRegion><flowPara
         id="flowPara8505-5-5-1">()</flowPara></flowRoot>    <path
       style="fill:none;fill-rule:evenodd;stroke:#000000;stroke-width:1px;stroke-linecap:butt;stroke-linejoin:miter;stroke-opacity:1;marker-end:url(#marker9633)"
       d="m 527.23678,116.90359 20.74138,36.05295"
       id="path8689"
       inkscape:connector-type="polyline"
       inkscape:connector-curvature="0"
       inkscape:connection-start="#rect8485-2-5-4"
       inkscape:connection-end="#rect4451-1-6-7-4" />
    <path
       style="fill:none;fill-rule:evenodd;stroke:#000000;stroke-width:1px;stroke-linecap:butt;stroke-linejoin:miter;stroke-opacity:1;marker-end:url(#marker9893)"
       d="m 554.60992,168.93439 0.16644,37.23651"
       id="path9885"
       inkscape:connector-type="polyline"
       inkscape:connector-curvature="0"
       inkscape:connection-start="#rect4451-1-6-7-4"
       inkscape:connection-end="#rect4136-7-3-6-0-4-3-9" />
    <path
       style="fill:none;fill-rule:evenodd;stroke:#000000;stroke-width:1;stroke-linecap:butt;stroke-linejoin:miter;stroke-miterlimit:4;stroke-dasharray:none;stroke-opacity:1;marker-end:url(#DotM)"
       d="m 370.4536,116.78227 57.30072,37.00891"
       id="path5855"
       inkscape:connector-type="polyline"
       inkscape:connector-curvature="0"
       inkscape:connection-start="#rect8485-2"
       inkscape:connection-end="#rect4451-1-6-6-3" />
    <path
       style="fill:none;fill-rule:evenodd;stroke:#000000;stroke-width:1px;stroke-linecap:butt;stroke-linejoin:miter;stroke-opacity:1;marker-end:url(#marker6121)"
       d="m 452.10405,153.79118 57.03801,-36.88759"
       id="path6119"
       inkscape:connector-type="polyline"
       inkscape:connector-curvature="0"
       inkscape:connection-start="#rect4451-1-6-6-3"
       inkscape:connection-end="#rect8485-2-5-4" />
  </g>
</svg>
